{
  "Open Home Page" : {
    "transaction" : "Open Home Page",
    "sampleCount" : 10000,
    "errorCount" : 0,
    "errorPct" : 0.0,
    "meanResTime" : 5445.126899999986,
    "medianResTime" : 5428.5,
    "minResTime" : 1792.0,
    "maxResTime" : 9752.0,
    "pct1ResTime" : 6323.0,
    "pct2ResTime" : 6486.0,
    "pct3ResTime" : 8670.899999999998,
    "throughput" : 97.41082039392936,
    "receivedKBytesPerSec" : 1804.6686266535487,
    "sentKBytesPerSec" : 11.32020276062265
  },
  "Total" : {
    "transaction" : "Total",
    "sampleCount" : 20000,
    "errorCount" : 0,
    "errorPct" : 0.0,
    "meanResTime" : 5508.677099999957,
    "medianResTime" : 5498.5,
    "minResTime" : 1792.0,
    "maxResTime" : 9752.0,
    "pct1ResTime" : 6345.0,
    "pct2ResTime" : 6587.0,
    "pct3ResTime" : 7925.920000000013,
    "throughput" : 180.05203503812604,
    "receivedKBytesPerSec" : 3188.89033930806,
    "sentKBytesPerSec" : 21.539428019697695
  },
  "Open Contact" : {
    "transaction" : "Open Contact",
    "sampleCount" : 10000,
    "errorCount" : 0,
    "errorPct" : 0.0,
    "meanResTime" : 5572.227299999964,
    "medianResTime" : 5557.0,
    "minResTime" : 4453.0,
    "maxResTime" : 7148.0,
    "pct1ResTime" : 6427.9,
    "pct2ResTime" : 6598.0,
    "pct3ResTime" : 7056.919999999998,
    "throughput" : 93.62682221202729,
    "receivedKBytesPerSec" : 1581.8727061428558,
    "sentKBytesPerSec" : 11.520487889370546
  }
}